…
``` r
library(tidyverse)
library(dplyr)
```

``` r
childcare_costs <- read_csv('https://raw.githubusercontent.com/rfordatascience/tidytuesday/master/data/2023/2023-05-09/childcare_costs.csv')

counties <- read_csv('https://raw.githubusercontent.com/rfordatascience/tidytuesday/master/data/2023/2023-05-09/counties.csv')

childcare_costs
```

    # A tibble: 34,567 × 61
       county_fips_code study_year unr_16 funr_16 munr_16 unr_20to64 funr_20to64
                  <dbl>      <dbl>  <dbl>   <dbl>   <dbl>      <dbl>       <dbl>
     1             1001       2008   5.42    4.41    6.32        4.6         3.5
     2             1001       2009   5.93    5.72    6.11        4.8         4.6
     3             1001       2010   6.21    5.57    6.78        5.1         4.6
     4             1001       2011   7.55    8.13    7.03        6.2         6.3
     5             1001       2012   8.6     8.88    8.29        6.7         6.4
     6             1001       2013   9.39   10.3     8.56        7.3         7.6
     7             1001       2014   8.5     9.18    7.95        6.8         6.8
     8             1001       2015   7.64    8.45    6.91        5.9         6.1
     9             1001       2016   5.59    6.27    4.99        4.4         4.6
    10             1001       2017   5.21    5.84    4.64        4.6         4.9
    # ℹ 34,557 more rows
    # ℹ 54 more variables: munr_20to64 <dbl>, flfpr_20to64 <dbl>,
    #   flfpr_20to64_under6 <dbl>, flfpr_20to64_6to17 <dbl>,
    #   flfpr_20to64_under6_6to17 <dbl>, mlfpr_20to64 <dbl>, pr_f <dbl>,
    #   pr_p <dbl>, mhi_2018 <dbl>, me_2018 <dbl>, fme_2018 <dbl>, mme_2018 <dbl>,
    #   total_pop <dbl>, one_race <dbl>, one_race_w <dbl>, one_race_b <dbl>,
    #   one_race_i <dbl>, one_race_a <dbl>, one_race_h <dbl>, …

``` r
counties
```

    # A tibble: 3,144 × 4
       county_fips_code county_name     state_name state_abbreviation
                  <dbl> <chr>           <chr>      <chr>             
     1             1001 Autauga County  Alabama    AL                
     2             1003 Baldwin County  Alabama    AL                
     3             1005 Barbour County  Alabama    AL                
     4             1007 Bibb County     Alabama    AL                
     5             1009 Blount County   Alabama    AL                
     6             1011 Bullock County  Alabama    AL                
     7             1013 Butler County   Alabama    AL                
     8             1015 Calhoun County  Alabama    AL                
     9             1017 Chambers County Alabama    AL                
    10             1019 Cherokee County Alabama    AL                
    # ℹ 3,134 more rows
…
``` r
childcare <- childcare_costs %>%
  mutate(county_fips_code = as.character(county_fips_code))

ca_counties <- counties %>%
  mutate(county_fips_code = as.character(county_fips_code)) 

ca_childcare <- childcare %>%
  left_join(ca_counties, by = "county_fips_code") %>% 
  filter(state_name == "California")

childcare
```

    # A tibble: 34,567 × 61
       county_fips_code study_year unr_16 funr_16 munr_16 unr_20to64 funr_20to64
       <chr>                 <dbl>  <dbl>   <dbl>   <dbl>      <dbl>       <dbl>
     1 1001                   2008   5.42    4.41    6.32        4.6         3.5
     2 1001                   2009   5.93    5.72    6.11        4.8         4.6
     3 1001                   2010   6.21    5.57    6.78        5.1         4.6
     4 1001                   2011   7.55    8.13    7.03        6.2         6.3
     5 1001                   2012   8.6     8.88    8.29        6.7         6.4
     6 1001                   2013   9.39   10.3     8.56        7.3         7.6
     7 1001                   2014   8.5     9.18    7.95        6.8         6.8
     8 1001                   2015   7.64    8.45    6.91        5.9         6.1
     9 1001                   2016   5.59    6.27    4.99        4.4         4.6
    10 1001                   2017   5.21    5.84    4.64        4.6         4.9
    # ℹ 34,557 more rows
    # ℹ 54 more variables: munr_20to64 <dbl>, flfpr_20to64 <dbl>,
    #   flfpr_20to64_under6 <dbl>, flfpr_20to64_6to17 <dbl>,
    #   flfpr_20to64_under6_6to17 <dbl>, mlfpr_20to64 <dbl>, pr_f <dbl>,
    #   pr_p <dbl>, mhi_2018 <dbl>, me_2018 <dbl>, fme_2018 <dbl>, mme_2018 <dbl>,
    #   total_pop <dbl>, one_race <dbl>, one_race_w <dbl>, one_race_b <dbl>,
    #   one_race_i <dbl>, one_race_a <dbl>, one_race_h <dbl>, …

``` r
ca_counties
```

    # A tibble: 3,144 × 4
       county_fips_code county_name     state_name state_abbreviation
       <chr>            <chr>           <chr>      <chr>             
     1 1001             Autauga County  Alabama    AL                
     2 1003             Baldwin County  Alabama    AL                
     3 1005             Barbour County  Alabama    AL                
     4 1007             Bibb County     Alabama    AL                
     5 1009             Blount County   Alabama    AL                
     6 1011             Bullock County  Alabama    AL                
     7 1013             Butler County   Alabama    AL                
     8 1015             Calhoun County  Alabama    AL                
     9 1017             Chambers County Alabama    AL                
    10 1019             Cherokee County Alabama    AL                
    # ℹ 3,134 more rows

``` r
ca_childcare
```

    # A tibble: 638 × 64
       county_fips_code study_year unr_16 funr_16 munr_16 unr_20to64 funr_20to64
       <chr>                 <dbl>  <dbl>   <dbl>   <dbl>      <dbl>       <dbl>
     1 6001                   2008   6.6     6.57    6.63        6.1         6.1
     2 6001                   2009   7.71    7.53    7.86        7.2         7.1
     3 6001                   2010   8.5     8.24    8.73        7.9         7.7
     4 6001                   2011   9.21    8.87    9.51        8.7         8.4
     5 6001                   2012   9.91    9.68   10.1         9.3         9.2
     6 6001                   2013  10.3    10.2    10.5         9.7         9.6
     7 6001                   2014   9.6     9.59    9.58        9           9.1
     8 6001                   2015   8.26    8.44    8.11        7.8         8  
     9 6001                   2016   7.11    7.34    6.91        6.7         7  
    10 6001                   2017   6.05    6.06    6.03        5.7         5.7
    # ℹ 628 more rows
    # ℹ 57 more variables: munr_20to64 <dbl>, flfpr_20to64 <dbl>,
    #   flfpr_20to64_under6 <dbl>, flfpr_20to64_6to17 <dbl>,
    #   flfpr_20to64_under6_6to17 <dbl>, mlfpr_20to64 <dbl>, pr_f <dbl>,
    #   pr_p <dbl>, mhi_2018 <dbl>, me_2018 <dbl>, fme_2018 <dbl>, mme_2018 <dbl>,
    #   total_pop <dbl>, one_race <dbl>, one_race_w <dbl>, one_race_b <dbl>,
    #   one_race_i <dbl>, one_race_a <dbl>, one_race_h <dbl>, …
…
ca_childcare
```

    # A tibble: 638 × 65
       county_fips_code study_year unr_16 funr_16 munr_16 unr_20to64 funr_20to64
       <chr>                 <dbl>  <dbl>   <dbl>   <dbl>      <dbl>       <dbl>
     1 6001                   2008   6.6     6.57    6.63        6.1         6.1
     2 6001                   2009   7.71    7.53    7.86        7.2         7.1
     3 6001                   2010   8.5     8.24    8.73        7.9         7.7
     4 6001                   2011   9.21    8.87    9.51        8.7         8.4
     5 6001                   2012   9.91    9.68   10.1         9.3         9.2
     6 6001                   2013  10.3    10.2    10.5         9.7         9.6
     7 6001                   2014   9.6     9.59    9.58        9           9.1
     8 6001                   2015   8.26    8.44    8.11        7.8         8  
     9 6001                   2016   7.11    7.34    6.91        6.7         7  
    10 6001                   2017   6.05    6.06    6.03        5.7         5.7
    # ℹ 628 more rows
    # ℹ 58 more variables: munr_20to64 <dbl>, flfpr_20to64 <dbl>,
    #   flfpr_20to64_under6 <dbl>, flfpr_20to64_6to17 <dbl>,
    #   flfpr_20to64_under6_6to17 <dbl>, mlfpr_20to64 <dbl>, pr_f <dbl>,
    #   pr_p <dbl>, mhi_2018 <dbl>, me_2018 <dbl>, fme_2018 <dbl>, mme_2018 <dbl>,
    #   total_pop <dbl>, one_race <dbl>, one_race_w <dbl>, one_race_b <dbl>,
    #   one_race_i <dbl>, one_race_a <dbl>, one_race_h <dbl>, …
…
``` r
ca_mc_all
```

    # A tibble: 1,914 × 4
       study_year region                 Age_Group    Median_Cost
            <dbl> <fct>                  <fct>              <dbl>
     1       2008 San Francisco Bay Area mc_infant           302.
     2       2008 San Francisco Bay Area mc_toddler          214.
     3       2008 San Francisco Bay Area mc_preschool        214.
     4       2009 San Francisco Bay Area mc_infant           313.
     5       2009 San Francisco Bay Area mc_toddler          234.
     6       2009 San Francisco Bay Area mc_preschool        234.
     7       2010 San Francisco Bay Area mc_infant           313.
     8       2010 San Francisco Bay Area mc_toddler          235.
     9       2010 San Francisco Bay Area mc_preschool        235.
    10       2011 San Francisco Bay Area mc_infant           314.
    # ℹ 1,904 more rows
